{"data":[{"id":"483","name":"Parallel Teleport","description":"Tribute 1 Psychic monster with a Level; Special Summon 1 Level 7 or lower Psychic monster from your Deck or Extra Deck, then if the original Level of the Tributed monster is different from that of the Special Summoned monster on the field, you lose LP equal to the difference x 1000. You cannot Special Summon the turn you activate this card, except Psychic monsters. You can only activate 1 \"Parallel Teleport\" per turn.","type":"Spell Card","humanReadableCardType":"Quick-Play Spell","frameType":"spell","race":"Quick-Play","archetype":"Teleport","atk":null,"def":null,"level":null,"attribute":null,"scale":null,"linkval":null,"linkmarkers":[],"ygoprodeckUrl":"https://ygoprodeck.com/card/parallel-teleport-15075","artwork":null,"prints":[]},{"id":"2511","name":"Labrynth Cooclock","description":"(Quick Effect): You can discard this card; this turn, you can activate 1 Normal Trap Card that was Set this turn, if you control a \"Labrynth\" monster. If a card(s) is sent from your hand to the GY to activate your Normal Trap Card or your \"Labrynth\" card or effect, except \"Labrynth Cooclock\", while this card is in your GY (except during the Damage Step): You can add this card to your hand, or Special Summon it. You can only use each effect of \"Labrynth Cooclock\" once per turn.","type":"Effect Monster","humanReadableCardType":"Effect Monster","frameType":"effect","race":"Fiend","archetype":"Labrynth","atk":0,"def":0,"level":1,"attribute":"DARK","scale":null,"linkval":null,"linkmarkers":[],"ygoprodeckUrl":"https://ygoprodeck.com/card/labrynth-cooclock-13115","artwork":"https://images.ygoprodeck.com/images/cards/2511.jpg","prints":[{"id":19968,"setCode":"MP23-EN232","setName":"25th Anniversary Tin: Dueling Heroes Mega Pack","rarity":"Common","rarityCode":"C","setPrice":null,"artwork":"https://images.ygoprodeck.com/images/cards/2511.jpg","prices":{"cardmarketPrice":"0.11","tcgplayerPrice":"0.1","ebayPrice":"0.99","amazonPrice":"1.29","coolstuffincPrice":"0.39"}},{"id":19969,"setCode":"OP23-EN005","setName":"OTS Tournament Pack 23","rarity":"Super Rare","rarityCode":"SR","setPrice":null,"artwork":"https://images.ygoprodeck.com/images/cards/2511.jpg","prices":{"cardmarketPrice":"0.11","tcgplayerPrice":"0.1","ebayPrice":"0.99","amazonPrice":"1.29","coolstuffincPrice":"0.39"}},{"id":19970,"setCode":"TAMA-EN020","setName":"Tactical Masters","rarity":"Rare","rarityCode":"R","setPrice":null,"artwork":"https://images.ygoprodeck.com/images/cards/2511.jpg","prices":{"cardmarketPrice":"0.11","tcgplayerPrice":"0.1","ebayPrice":"0.99","amazonPrice":"1.29","coolstuffincPrice":"0.39"}}]},{"id":"10000","name":"Ten Thousand Dragon","description":"Cannot be Normal Summoned/Set. Must be Special Summoned by Tributing monsters you control whose combined ATK & DEF is 10,000 or more. If Summoned this way, the ATK/DEF of this card becomes 10,000.","type":"Effect Monster","humanReadableCardType":"Effect Monster","frameType":"effect","race":"Dragon","archetype":null,"atk":-1,"def":-1,"level":10,"attribute":"DARK","scale":null,"linkval":null,"linkmarkers":[],"ygoprodeckUrl":"https://ygoprodeck.com/card/ten-thousand-dragon-10518","artwork":"https://images.ygoprodeck.com/images/cards/10000.jpg","prints":[{"id":35097,"setCode":"BLAR-EN10K","setName":"Battles of Legend: Armageddon","rarity":"10000 Secret Rare","rarityCode":"1SR","setPrice":"1961.53","artwork":"https://images.ygoprodeck.com/images/cards/10000.jpg","prices":{"cardmarketPrice":"825.86","tcgplayerPrice":"717.56","ebayPrice":"999.99","amazonPrice":"1","coolstuffincPrice":"999.99"}}]},{"id":"27551","name":"Limit Reverse","description":"Target 1 monster with 1000 or less ATK in your Graveyard; Special Summon it in Attack Position. If the target is changed to Defense Position, destroy it and this card. When this card leaves the field, destroy the target. When the target is destroyed, destroy this card.","type":"Trap Card","humanReadableCardType":"Continuous Trap","frameType":"trap","race":"Continuous","archetype":null,"atk":null,"def":null,"level":null,"attribute":null,"scale":null,"linkval":null,"linkmarkers":[],"ygoprodeckUrl":"https://ygoprodeck.com/card/limit-reverse-1","artwork":"https://images.ygoprodeck.com/images/cards/27551.jpg","prints":[{"id":20646,"setCode":"LODT-EN063","setName":"Light of Destruction","rarity":"Common","rarityCode":"C","setPrice":null,"artwork":"https://images.ygoprodeck.com/images/cards/27551.jpg","prices":{"cardmarketPrice":"0.1","tcgplayerPrice":"0.1","ebayPrice":"0.99","amazonPrice":"1.08","coolstuffincPrice":"0.25"}},{"id":20647,"setCode":"YS11-EN039","setName":"Starter Deck: Dawn of the Xyz","rarity":"Common","rarityCode":"C","setPrice":null,"artwork":"https://images.ygoprodeck.com/images/cards/27551.jpg","prices":{"cardmarketPrice":"0.1","tcgplayerPrice":"0.1","ebayPrice":"0.99","amazonPrice":"1.08","coolstuffincPrice":"0.25"}},{"id":20648,"setCode":"YS12-EN037","setName":"Starter Deck: Xyz Symphony","rarity":"Common","rarityCode":"C","setPrice":"1.24","artwork":"https://images.ygoprodeck.com/images/cards/27551.jpg","prices":{"cardmarketPrice":"0.1","tcgplayerPrice":"0.1","ebayPrice":"0.99","amazonPrice":"1.08","coolstuffincPrice":"0.25"}},{"id":20649,"setCode":"5DS2-EN037","setName":"Starter Deck: Yu-Gi-Oh! 5D's 2009","rarity":"Common","rarityCode":"C","setPrice":null,"artwork":"https://images.ygoprodeck.com/images/cards/27551.jpg","prices":{"cardmarketPrice":"0.1","tcgplayerPrice":"0.1","ebayPrice":"0.99","amazonPrice":"1.08","coolstuffincPrice":"0.25"}}]},{"id":"32864","name":"The 13th Grave","description":"A zombie that suddenly appeared from plot #13 - an empty grave.","type":"Normal Monster","humanReadableCardType":"Normal Monster","frameType":"normal","race":"Zombie","archetype":null,"atk":1200,"def":900,"level":3,"attribute":"DARK","scale":null,"linkval":null,"linkmarkers":[],"ygoprodeckUrl":"https://ygoprodeck.com/card/the-13th-grave-2","artwork":"https://images.ygoprodeck.com/images/cards/32864.jpg","prints":[{"id":35281,"setCode":"LOB-EN014","setName":"Legend of Blue Eyes White Dragon","rarity":"Common","rarityCode":"C","setPrice":"1.82","artwork":"https://images.ygoprodeck.com/images/cards/32864.jpg","prices":{"cardmarketPrice":"0.02","tcgplayerPrice":"0.17","ebayPrice":"0.99","amazonPrice":"0.2","coolstuffincPrice":"0.25"}},{"id":35282,"setCode":"LOB-E010","setName":"Legend of Blue Eyes White Dragon","rarity":"Common","rarityCode":"C","setPrice":"6.81","artwork":"https://images.ygoprodeck.com/images/cards/32864.jpg","prices":{"cardmarketPrice":"0.02","tcgplayerPrice":"0.17","ebayPrice":"0.99","amazonPrice":"0.2","coolstuffincPrice":"0.25"}}]}],"pagination":{"page":1,"limit":5,"total":14149,"totalPages":2830,"hasMore":true}}